…
(bmodel <- PATH(nc))
#> $object
#> # A tibble: 100 × 15
#>     AREA PERIMETER CNTY_ CNTY_ID        NAME   FIPS FIPSNO CRESS_ID BIR74
#>    <dbl>     <dbl> <dbl>   <dbl>      <fctr> <fctr>  <dbl>    <int> <dbl>
#> 1  0.114     1.442  1825    1825        Ashe  37009  37009        5  1091
#> 2  0.061     1.231  1827    1827   Alleghany  37005  37005        3   487
#> 3  0.143     1.630  1828    1828       Surry  37171  37171       86  3188
#> 4  0.070     2.968  1831    1831   Currituck  37053  37053       27   508
#> 5  0.153     2.206  1832    1832 Northampton  37131  37131       66  1421
#> 6  0.097     1.670  1833    1833    Hertford  37091  37091       46  1452
#> 7  0.062     1.547  1834    1834      Camden  37029  37029       15   286
#> 8  0.091     1.284  1835    1835       Gates  37073  37073       37   420
#> 9  0.118     1.421  1836    1836      Warren  37185  37185       93   968
#> 10 0.124     1.428  1837    1837      Stokes  37169  37169       85  1612
#> # ... with 90 more rows, and 6 more variables: SID74 <dbl>, NWBIR74 <dbl>,
#> #   BIR79 <dbl>, SID79 <dbl>, NWBIR79 <dbl>, object_ <chr>
#> 
#> $path
#> # A tibble: 108 × 4
#>    island_ ncoords_    path_  object_
#>      <chr>    <int>    <chr>    <chr>
#> 1        1       27 b6858716 63dd35bd
#> 2        1       26 7041939c b0047718
#> 3        1       28 2ac2ca27 2b8204dc
#> 4        1       26 fc3c6733 2dd07a2d
#> 5        2        7 4eeff8a7 2dd07a2d
#> 6        3        5 92740a05 2dd07a2d
#> 7        1       34 45be3642 aa322ea0
#> 8        1       22 7978402d 63558e1c
#> 9        1       24 8394a84b 5ca9e92f
#> 10       1       17 784ed393 e1d0b144
#> # ... with 98 more rows
#> 
#> $vertex
#> # A tibble: 1,255 × 3
#>           x_       y_  vertex_
#>        <dbl>    <dbl>    <chr>
#> 1  -81.47276 36.23436 7f6a781d
#> 2  -81.54084 36.27251 39176cf3
#> 3  -81.56198 36.27359 8bdc74ea
#> 4  -81.63306 36.34069 0b16076e
#> 5  -81.74107 36.39178 7df546ec
#> 6  -81.69828 36.47178 2e6c7505
#> 7  -81.70280 36.51934 37e6d21f
#> 8  -81.67000 36.58965 c1951377
#> 9  -81.34530 36.57286 cdaafe7e
#> 10 -81.34754 36.53791 3febedd9
#> # ... with 1,245 more rows
#> 
#> $path_link_vertex
#> # A tibble: 2,529 × 2
#>       path_  vertex_
#>       <chr>    <chr>
#> 1  b6858716 7f6a781d
#> 2  b6858716 39176cf3
#> 3  b6858716 8bdc74ea
#> 4  b6858716 0b16076e
#> 5  b6858716 7df546ec
#> 6  b6858716 2e6c7505
#> 7  b6858716 37e6d21f
#> 8  b6858716 c1951377
#> 9  b6858716 cdaafe7e
#> 10 b6858716 3febedd9
#> # ... with 2,519 more rows
…
