Common Forms for Simple Features • scsf
…
(bmodel <- PATH(nc))
#> $object
#> # A tibble: 100 x 15
#>     AREA PERIMETER CNTY_ CNTY_ID        NAME   FIPS FIPSNO CRESS_ID BIR74
#>  * <dbl>     <dbl> <dbl>   <dbl>      <fctr> <fctr>  <dbl>    <int> <dbl>
#>  1 0.114     1.442  1825    1825        Ashe  37009  37009        5  1091
#>  2 0.061     1.231  1827    1827   Alleghany  37005  37005        3   487
#>  3 0.143     1.630  1828    1828       Surry  37171  37171       86  3188
#>  4 0.070     2.968  1831    1831   Currituck  37053  37053       27   508
#>  5 0.153     2.206  1832    1832 Northampton  37131  37131       66  1421
#>  6 0.097     1.670  1833    1833    Hertford  37091  37091       46  1452
#>  7 0.062     1.547  1834    1834      Camden  37029  37029       15   286
#>  8 0.091     1.284  1835    1835       Gates  37073  37073       37   420
#>  9 0.118     1.421  1836    1836      Warren  37185  37185       93   968
#> 10 0.124     1.428  1837    1837      Stokes  37169  37169       85  1612
#> # ... with 90 more rows, and 6 more variables: SID74 <dbl>, NWBIR74 <dbl>,
#> #   BIR79 <dbl>, SID79 <dbl>, NWBIR79 <dbl>, object <chr>
#> 
#> $path
#> # A tibble: 108 x 6
#>     ncol         type subobject   object     path ncoords_
#>    <int>        <chr>     <int>    <chr>    <chr>    <int>
#>  1     2 MULTIPOLYGON         1 3ad497f7 7439f264       27
#>  2     2 MULTIPOLYGON         1 d19baea0 ee8e4d78       26
#>  3     2 MULTIPOLYGON         1 9475582a 5f9a7d62       28
#>  4     2 MULTIPOLYGON         1 8f120b68 d3f18e41       26
#>  5     2 MULTIPOLYGON         2 8f120b68 6b127ad2        7
#>  6     2 MULTIPOLYGON         3 8f120b68 0a9b2f99        5
#>  7     2 MULTIPOLYGON         1 4a3250c4 45cd6c1d       34
#>  8     2 MULTIPOLYGON         1 c863d5fb 60b0a41e       22
#>  9     2 MULTIPOLYGON         1 5f1e579b 831f29a9       24
#> 10     2 MULTIPOLYGON         1 cbae02ec 764708a9       17
#> # ... with 98 more rows
#> 
#> $vertex
#> # A tibble: 1,255 x 3
#>           x_       y_  vertex_
#>        <dbl>    <dbl>    <chr>
#>  1 -81.47276 36.23436 4a801c24
#>  2 -81.54084 36.27251 d133881c
#>  3 -81.56198 36.27359 1c825079
#>  4 -81.63306 36.34069 46dbd4d1
#>  5 -81.74107 36.39178 5724c873
#>  6 -81.69828 36.47178 94760f85
#>  7 -81.70280 36.51934 97f8d047
#>  8 -81.67000 36.58965 e7713dab
#>  9 -81.34530 36.57286 9cb4a85c
#> 10 -81.34754 36.53791 d32e000f
#> # ... with 1,245 more rows
#> 
#> $path_link_vertex
#> # A tibble: 2,529 x 2
#>        path  vertex_
#>       <chr>    <chr>
#>  1 7439f264 4a801c24
#>  2 7439f264 d133881c
#>  3 7439f264 1c825079
#>  4 7439f264 46dbd4d1
#>  5 7439f264 5724c873
#>  6 7439f264 94760f85
#>  7 7439f264 97f8d047
#>  8 7439f264 e7713dab
#>  9 7439f264 9cb4a85c
#> 10 7439f264 d32e000f
#> # ... with 2,519 more rows
…
