Coordinate decomposition — sc_coord â€¢ scsf
…
      x
      input `simple features` `sf` object
      ...
      arguments passed to methods

    See also

    `sc_path` for the central part of the model, `sc_object` for 
the features, and `PATH` for the full model.

    Examples

data("sfzoo")
sc_coord(sf::st_sfc(sfzoo))
#> # A tibble: 55 × 2
#>       x_    y_
#>    <dbl> <dbl>
#> 1    1.0   2.0
#> 2    3.2   4.0
#> 3    3.0   4.6
#> 4    3.8   4.4
#> 5    3.5   3.8
#> 6    3.4   3.6
#> 7    3.9   4.5
#> 8    0.0   3.0
#> 9    0.0   4.0
#> 10   1.0   5.0
#> # ... with 45 more rows
…
#>       x_    y_
#>    <dbl> <dbl>
#> 1      0     0
#> 2      1     0
#> 3      3     2
#> 4      2     4
#> 5      1     4
#> 6      0     0
#> 7      1     1
#> 8      1     2
#> 9      2     2
#> 10     1     1
#> 
#> $multipolygon
#> # A tibble: 24 × 2
#>       x_    y_
#>    <dbl> <dbl>
#> 1      0     0
#> 2      1     0
#> 3      3     2
#> 4      2     4
#> 5      1     4
#> 6      0     0
#> 7      1     1
#> 8      1     2
#> 9      2     2
#> 10     1     1
#> # ... with 14 more rows
#> 
sc_coord(sf::st_sfc(sfzoo))
#> # A tibble: 55 × 2
#>       x_    y_
#>    <dbl> <dbl>
#> 1    1.0   2.0
#> 2    3.2   4.0
#> 3    3.0   4.6
#> 4    3.8   4.4
#> 5    3.5   3.8
#> 6    3.4   3.6
#> 7    3.9   4.5
#> 8    0.0   3.0
#> 9    0.0   4.0
#> 10   1.0   5.0
#> # ... with 45 more rows
…
